{
  "name": "mkto-bootstrapify",
  "title": "Bootstrapify Marketo Forms 2.0",
  "description": "Utilize the Bootstrap framework  with Marketo Forms 2.0.",
  "version": "0.1.0",
  "homepage": "",
  "author": {
    "name": "TPG Solution Engineering",
    "email": "solution.engineers@pedowitzgroup.com",
    "url": "http://www.pedowitzgroup.com/"
  },
  "repository": {
    "type": "git",
    "url": "https://tpgjason@bitbucket.org/tpgtech/bootstrapify-marketo-forms.git"
  },
  "bugs": "",
  "licenses": [
    {
      "type": "MIT",
      "url": "/blob/master/LICENSE-MIT"
    }
  ],
  "dependencies": {
    "jquery": "*"
  },
  "keywords": []
}